{
    "app-id": "org.GreatGodvin.rello",
    "runtime": "org.freedesktop.Platform",
    "runtime-version": "20.08",
    "sdk": "org.freedesktop.Sdk",
    "sdk-extensions": ["org.freedesktop.Sdk.Extension.rust-stable"],
    "command": "rello",
    "build-options": {
        "append-path" : "/usr/lib/sdk/rust-stable/bin",
        "build-args": [
            "--share=network"
        ]
     },
    "modules": [
      {
        "name": "rello",
        "buildsystem": "meson",
        "sources": [
          {
            "type": "git",
            "branch": "main",
            "url": "https://gitlab.com/GreatGodvin/rello.git"
          }
        ]
      }
    ]
}
